{
  "type": "FeatureCollection",
  "features": [
    {
      "type": "Feature",
      "geometry": {
        "type": "Point",
        "coordinates": [
          121.498063,
          25.093249
        ]
      },
      "properties": {
        "P_ID": 329,
        "P_Type": "B001",
        "Pcode5_ID": 11172,
        "P_Name": "全國洲美站(全國)",
        "P_X": 300236.874313573,
        "P_Y": 2776196.69308552
      }
    },
    {
      "type": "Feature",
      "geometry": {
        "type": "Point",
        "coordinates": [
          121.511818,
          25.084887
        ]
      },
      "properties": {
        "P_ID": 330,
        "P_Type": "B001",
        "Pcode5_ID": 11164,
        "P_Name": "社子站(中油)",
        "P_X": 301627.797397809,
        "P_Y": 2775275.65412398
      }
    },
    {
      "type": "Feature",
      "geometry": {
        "type": "Point",
        "coordinates": [
          121.527657,
          25.092396
        ]
      },
      "properties": {
        "P_ID": 331,
        "P_Type": "B001",
        "Pcode5_ID": 11163,
        "P_Name": "福林站(中油)",
        "P_X": 303222.280168655,
        "P_Y": 2776113.54135443
      }
    },
    {
      "type": "Feature",
      "geometry": {
        "type": "Point",
        "coordinates": [
          121.545952,
          25.135439
        ]
      },
      "properties": {
        "P_ID": 332,
        "P_Type": "B001",
        "Pcode5_ID": 11191,
        "P_Name": "陽明山站(中油)",
        "P_X": 305048.364183796,
        "P_Y": 2780888.60331667
      }
    },
    {
      "type": "Feature",
      "geometry": {
        "type": "Point",
        "coordinates": [
          121.526255,
          25.087477
        ]
      },
      "properties": {
        "P_ID": 333,
        "P_Type": "B001",
        "Pcode5_ID": 11163,
        "P_Name": "文林路站(中油)",
        "P_X": 303082.986609194,
        "P_Y": 2775568.13140513
      }
    },
    {
      "type": "Feature",
      "geometry": {
        "type": "Point",
        "coordinates": [
          121.528317,
          25.095559
        ]
      },
      "properties": {
        "P_ID": 334,
        "P_Type": "B001",
        "Pcode5_ID": 11143,
        "P_Name": "士林站(西歐)",
        "P_X": 303287.482344771,
        "P_Y": 2776464.15491114
      }
    },
    {
      "type": "Feature",
      "geometry": {
        "type": "Point",
        "coordinates": [
          121.528938,
          25.101948
        ]
      },
      "properties": {
        "P_ID": 335,
        "P_Type": "B001",
        "Pcode5_ID": 11142,
        "P_Name": "芝山站(同宏)",
        "P_X": 303347.347921471,
        "P_Y": 2777172.08556862
      }
    },
    {
      "type": "Feature",
      "geometry": {
        "type": "Point",
        "coordinates": [
          121.512052,
          25.082876
        ]
      },
      "properties": {
        "P_ID": 336,
        "P_Type": "B001",
        "Pcode5_ID": 11165,
        "P_Name": "全國台北交流道站(全國)",
        "P_X": 301652.245687114,
        "P_Y": 2775052.99344845
      }
    },
    {
      "type": "Feature",
      "geometry": {
        "type": "Point",
        "coordinates": [
          121.522004,
          25.087653
        ]
      },
      "properties": {
        "P_ID": 337,
        "P_Type": "B001",
        "Pcode5_ID": 11167,
        "P_Name": "基河站(西歐)",
        "P_X": 302654.108115815,
        "P_Y": 2775585.96298621
      }
    },
    {
      "type": "Feature",
      "geometry": {
        "type": "Point",
        "coordinates": [
          121.514371,
          25.06283
        ]
      },
      "properties": {
        "P_ID": 338,
        "P_Type": "B001",
        "Pcode5_ID": 10359,
        "P_Name": "民權西路站(中油)",
        "P_X": 301894.62185456,
        "P_Y": 2772833.47259276
      }
    },
    {
      "type": "Feature",
      "geometry": {
        "type": "Point",
        "coordinates": [
          121.535292,
          25.025815
        ]
      },
      "properties": {
        "P_ID": 339,
        "P_Type": "B001",
        "Pcode5_ID": 10662,
        "P_Name": "龍安站(中油)",
        "P_X": 304021.585049722,
        "P_Y": 2768741.67765182
      }
    },
    {
      "type": "Feature",
      "geometry": {
        "type": "Point",
        "coordinates": [
          121.538033,
          25.030996
        ]
      },
      "properties": {
        "P_ID": 340,
        "P_Type": "B001",
        "Pcode5_ID": 10658,
        "P_Name": "勝利站(勝利身心障礙潛能發展中心)",
        "P_X": 304295.931629362,
        "P_Y": 2769316.64883574
      }
    },
    {
      "type": "Feature",
      "geometry": {
        "type": "Point",
        "coordinates": [
          121.526942,
          25.031564
        ]
      },
      "properties": {
        "P_ID": 341,
        "P_Type": "B001",
        "Pcode5_ID": 10642,
        "P_Name": "金山南路站(中油)",
        "P_X": 303176.411088435,
        "P_Y": 2769375.16210925
      }
    },
    {
      "type": "Feature",
      "geometry": {
        "type": "Point",
        "coordinates": [
          121.533103,
          25.038426
        ]
      },
      "properties": {
        "P_ID": 342,
        "P_Type": "B001",
        "Pcode5_ID": 10651,
        "P_Name": "新生南路站(中油)",
        "P_X": 303795.167860769,
        "P_Y": 2770137.66761117
      }
    },
    {
      "type": "Feature",
      "geometry": {
        "type": "Point",
        "coordinates": [
          121.537005,
          25.04438
        ]
      },
      "properties": {
        "P_ID": 343,
        "P_Type": "B001",
        "Pcode5_ID": 10666,
        "P_Name": "陽光站(陽光社會福利基金會)",
        "P_X": 304186.307840183,
        "P_Y": 2770798.72162489
      }
    },
    {
      "type": "Feature",
      "geometry": {
        "type": "Point",
        "coordinates": [
          121.556914,
          25.019141
        ]
      },
      "properties": {
        "P_ID": 344,
        "P_Type": "B001",
        "Pcode5_ID": 10676,
        "P_Name": "富陽街站(中油)",
        "P_X": 306206.756857746,
        "P_Y": 2768011.22765315
      }
    },
    {
      "type": "Feature",
      "geometry": {
        "type": "Point",
        "coordinates": [
          121.555866,
          25.027607
        ]
      },
      "properties": {
        "P_ID": 345,
        "P_Type": "B001",
        "Pcode5_ID": 10677,
        "P_Name": "基隆路站(中油)",
        "P_X": 306097.136582607,
        "P_Y": 2768948.5335393
      }
    },
    {
      "type": "Feature",
      "geometry": {
        "type": "Point",
        "coordinates": [
          121.555459,
          25.032929
        ]
      },
      "properties": {
        "P_ID": 346,
        "P_Type": "B001",
        "Pcode5_ID": 10679,
        "P_Name": "信義路站(中油)",
        "P_X": 306053.643902934,
        "P_Y": 2769537.85924928
      }
    },
    {
      "type": "Feature",
      "geometry": {
        "type": "Point",
        "coordinates": [
          121.539583,
          25.046387
        ]
      },
      "properties": {
        "P_ID": 347,
        "P_Type": "B001",
        "Pcode5_ID": 10491,
        "P_Name": "中崙站(中油)",
        "P_X": 304445.558703636,
        "P_Y": 2771022.06276505
      }
    },
    {
      "type": "Feature",
      "geometry": {
        "type": "Point",
        "coordinates": [
          121.536733,
          25.065635
        ]
      },
      "properties": {
        "P_ID": 348,
        "P_Type": "B001",
        "Pcode5_ID": 10473,
        "P_Name": "建國北路站(中油)",
        "P_X": 304149.521046337,
        "P_Y": 2773152.93747172
      }
    },
    {
      "type": "Feature",
      "geometry": {
        "type": "Point",
        "coordinates": [
          121.5302,
          25.050892
        ]
      },
      "properties": {
        "P_ID": 349,
        "P_Type": "B001",
        "Pcode5_ID": 10456,
        "P_Name": "吉林路站(中油)",
        "P_X": 303496.812882058,
        "P_Y": 2771517.3193624
      }
    },
    {
      "type": "Feature",
      "geometry": {
        "type": "Point",
        "coordinates": [
          121.550658,
          25.084244
        ]
      },
      "properties": {
        "P_ID": 350,
        "P_Type": "B001",
        "Pcode5_ID": 10466,
        "P_Name": "大直站(中油)",
        "P_X": 305546.007787914,
        "P_Y": 2775219.83279782
      }
    },
    {
      "type": "Feature",
      "geometry": {
        "type": "Point",
        "coordinates": [
          121.528053,
          25.056551
        ]
      },
      "properties": {
        "P_ID": 351,
        "P_Type": "B001",
        "Pcode5_ID": 10459,
        "P_Name": "新生北路站(中油)",
        "P_X": 303277.731669888,
        "P_Y": 2772143.29458462
      }
    },
    {
      "type": "Feature",
      "geometry": {
        "type": "Point",
        "coordinates": [
          121.531204,
          25.048347
        ]
      },
      "properties": {
        "P_ID": 352,
        "P_Type": "B001",
        "Pcode5_ID": 10456,
        "P_Name": "長安站(長安)",
        "P_X": 303599.224278759,
        "P_Y": 2771235.81837482
      }
    },
    {
      "type": "Feature",
      "geometry": {
        "type": "Point",
        "coordinates": [
          121.53956,
          25.072718
        ]
      },
      "properties": {
        "P_ID": 353,
        "P_Type": "B001",
        "Pcode5_ID": 10472,
        "P_Name": "濱江站(濱江)",
        "P_X": 304431.604174987,
        "P_Y": 2773938.62750998
      }
    },
    {
      "type": "Feature",
      "geometry": {
        "type": "Point",
        "coordinates": [
          121.547735,
          25.072466
        ]
      },
      "properties": {
        "P_ID": 354,
        "P_Type": "B001",
        "Pcode5_ID": 10472,
        "P_Name": "大直橋站(西歐)",
        "P_X": 305256.439340487,
        "P_Y": 2773914.03068273
      }
    },
    {
      "type": "Feature",
      "geometry": {
        "type": "Point",
        "coordinates": [
          121.507301,
          25.031397
        ]
      },
      "properties": {
        "P_ID": 355,
        "P_Type": "B001",
        "Pcode5_ID": 10068,
        "P_Name": "莒光路站(中油)",
        "P_X": 301194.372536068,
        "P_Y": 2769349.09480133
      }
    },
    {
      "type": "Feature",
      "geometry": {
        "type": "Point",
        "coordinates": [
          121.525808,
          25.020759
        ]
      },
      "properties": {
        "P_ID": 356,
        "P_Type": "B001",
        "Pcode5_ID": 10086,
        "P_Name": "汀州路站(中油)",
        "P_X": 303066.617690694,
        "P_Y": 2768177.89995395
      }
    },
    {
      "type": "Feature",
      "geometry": {
        "type": "Point",
        "coordinates": [
          121.52395,
          25.046087
        ]
      },
      "properties": {
        "P_ID": 357,
        "P_Type": "B001",
        "Pcode5_ID": 10049,
        "P_Name": "林森北路站(中油)",
        "P_X": 302868.241478861,
        "P_Y": 2770982.63492226
      }
    },
    {
      "type": "Feature",
      "geometry": {
        "type": "Point",
        "coordinates": [
          121.574975,
          25.069013
        ]
      },
      "properties": {
        "P_ID": 358,
        "P_Type": "B001",
        "Pcode5_ID": 11494,
        "P_Name": "台亞堤頂交流道加油站(台亞)",
        "P_X": 308006.141497177,
        "P_Y": 2773542.96426173
      }
    },
    {
      "type": "Feature",
      "geometry": {
        "type": "Point",
        "coordinates": [
          121.584082,
          25.06846
        ]
      },
      "properties": {
        "P_ID": 359,
        "P_Type": "B001",
        "Pcode5_ID": 11466,
        "P_Name": "內湖站(中油)",
        "P_X": 308925.182810998,
        "P_Y": 2773485.64812977
      }
    },
    {
      "type": "Feature",
      "geometry": {
        "type": "Point",
        "coordinates": [
          121.55995,
          25.085092
        ]
      },
      "properties": {
        "P_ID": 360,
        "P_Type": "B001",
        "Pcode5_ID": 11446,
        "P_Name": "西湖站(中油)",
        "P_X": 306482.940880771,
        "P_Y": 2775317.61417372
      }
    },
    {
      "type": "Feature",
      "geometry": {
        "type": "Point",
        "coordinates": [
          121.611862,
          25.067527
        ]
      },
      "properties": {
        "P_ID": 361,
        "P_Type": "B001",
        "Pcode5_ID": 11486,
        "P_Name": "東湖站(中油)",
        "P_X": 311728.30627637,
        "P_Y": 2773394.69645328
      }
    },
    {
      "type": "Feature",
      "geometry": {
        "type": "Point",
        "coordinates": [
          121.571031,
          25.081325
        ]
      },
      "properties": {
        "P_ID": 362,
        "P_Type": "B001",
        "Pcode5_ID": 11493,
        "P_Name": "內湖麗山街站(中油)",
        "P_X": 307602.483521421,
        "P_Y": 2774905.03406705
      }
    },
    {
      "type": "Feature",
      "geometry": {
        "type": "Point",
        "coordinates": [
          121.584972,
          25.056875
        ]
      },
      "properties": {
        "P_ID": 363,
        "P_Type": "B001",
        "Pcode5_ID": 11471,
        "P_Name": "協記站(協記)",
        "P_X": 309020.52263883,
        "P_Y": 2772202.8076189
      }
    },
    {
      "type": "Feature",
      "geometry": {
        "type": "Point",
        "coordinates": [
          121.608301,
          25.072009
        ]
      },
      "properties": {
        "P_ID": 364,
        "P_Type": "B001",
        "Pcode5_ID": 11486,
        "P_Name": "康寧站(康寧)",
        "P_X": 311366.809069455,
        "P_Y": 2773889.53241114
      }
    },
    {
      "type": "Feature",
      "geometry": {
        "type": "Point",
        "coordinates": [
          121.583471,
          25.078324
        ]
      },
      "properties": {
        "P_ID": 365,
        "P_Type": "B001",
        "Pcode5_ID": 11475,
        "P_Name": "紫陽站(紫陽)",
        "P_X": 308858.825286064,
        "P_Y": 2774577.98307022
      }
    },
    {
      "type": "Feature",
      "geometry": {
        "type": "Point",
        "coordinates": [
          121.589551,
          25.059694
        ]
      },
      "properties": {
        "P_ID": 366,
        "P_Type": "B001",
        "Pcode5_ID": 11470,
        "P_Name": "統一精工內湖一站(統一精工)",
        "P_X": 309481.168697575,
        "P_Y": 2772517.06365973
      }
    },
    {
      "type": "Feature",
      "geometry": {
        "type": "Point",
        "coordinates": [
          121.574981,
          25.069695
        ]
      },
      "properties": {
        "P_ID": 367,
        "P_Type": "B001",
        "Pcode5_ID": 11494,
        "P_Name": "麗馳站(麗馳)",
        "P_X": 308006.425591075,
        "P_Y": 2773618.50949597
      }
    },
    {
      "type": "Feature",
      "geometry": {
        "type": "Point",
        "coordinates": [
          121.578354,
          25.06638
        ]
      },
      "properties": {
        "P_ID": 368,
        "P_Type": "B001",
        "Pcode5_ID": 11466,
        "P_Name": "全國民權站(全國)",
        "P_X": 308348.285482432,
        "P_Y": 2773252.77018401
      }
    },
    {
      "type": "Feature",
      "geometry": {
        "type": "Point",
        "coordinates": [
          121.575678,
          25.065635
        ]
      },
      "properties": {
        "P_ID": 369,
        "P_Type": "B001",
        "Pcode5_ID": 11466,
        "P_Name": "文德站(全國)",
        "P_X": 308078.657803948,
        "P_Y": 2773169.09731767
      }
    },
    {
      "type": "Feature",
      "geometry": {
        "type": "Point",
        "coordinates": [
          121.564205,
          25.082651
        ]
      },
      "properties": {
        "P_ID": 370,
        "P_Type": "B001",
        "Pcode5_ID": 11493,
        "P_Name": "自強站",
        "P_X": 306913.286397903,
        "P_Y": 2775049.01850715
      }
    },
    {
      "type": "Feature",
      "geometry": {
        "type": "Point",
        "coordinates": [
          121.572826,
          25.075024
        ]
      },
      "properties": {
        "P_ID": 371,
        "P_Type": "B001",
        "Pcode5_ID": 11494,
        "P_Name": "全國港墘路站(全國)",
        "P_X": 307786.514857112,
        "P_Y": 2774207.8607815
      }
    },
    {
      "type": "Feature",
      "geometry": {
        "type": "Point",
        "coordinates": [
          121.573192,
          25.07515
        ]
      },
      "properties": {
        "P_ID": 372,
        "P_Type": "B001",
        "Pcode5_ID": 11493,
        "P_Name": "鯨世界堤頂加油站(鯨世界)",
        "P_X": 307823.378446848,
        "P_Y": 2774221.97385088
      }
    },
    {
      "type": "Feature",
      "geometry": {
        "type": "Point",
        "coordinates": [
          121.568533,
          25.077742
        ]
      },
      "properties": {
        "P_ID": 373,
        "P_Type": "B001",
        "Pcode5_ID": 11493,
        "P_Name": "東易站(東易)",
        "P_X": 307352.162926686,
        "P_Y": 2774507.0956227
      }
    },
    {
      "type": "Feature",
      "geometry": {
        "type": "Point",
        "coordinates": [
          121.606408,
          25.064156
        ]
      },
      "properties": {
        "P_ID": 374,
        "P_Type": "B001",
        "Pcode5_ID": 11484,
        "P_Name": "安康站(中油)",
        "P_X": 311179.735082725,
        "P_Y": 2773018.82324136
      }
    },
    {
      "type": "Feature",
      "geometry": {
        "type": "Point",
        "coordinates": [
          121.570758,
          24.98784
        ]
      },
      "properties": {
        "P_ID": 375,
        "P_Type": "B001",
        "Pcode5_ID": 11664,
        "P_Name": "政大站(政大)",
        "P_X": 307618.595948046,
        "P_Y": 2764549.9770979
      }
    },
    {
      "type": "Feature",
      "geometry": {
        "type": "Point",
        "coordinates": [
          121.564131,
          24.988479
        ]
      },
      "properties": {
        "P_ID": 376,
        "P_Type": "B001",
        "Pcode5_ID": 11648,
        "P_Name": "木柵站(中油)",
        "P_X": 306949.285133052,
        "P_Y": 2764617.95695567
      }
    },
    {
      "type": "Feature",
      "geometry": {
        "type": "Point",
        "coordinates": [
          121.539476,
          25.004447
        ]
      },
      "properties": {
        "P_ID": 377,
        "P_Type": "B001",
        "Pcode5_ID": 11681,
        "P_Name": "萬隆站(中油)",
        "P_X": 304453.265466581,
        "P_Y": 2766376.52371225
      }
    },
    {
      "type": "Feature",
      "geometry": {
        "type": "Point",
        "coordinates": [
          121.558256,
          25.006421
        ]
      },
      "properties": {
        "P_ID": 378,
        "P_Type": "B001",
        "Pcode5_ID": 11693,
        "P_Name": "辛亥站(車容坊)",
        "P_X": 306348.006080595,
        "P_Y": 2766602.85022481
      }
    },
    {
      "type": "Feature",
      "geometry": {
        "type": "Point",
        "coordinates": [
          121.540849,
          24.996254
        ]
      },
      "properties": {
        "P_ID": 379,
        "P_Type": "B001",
        "Pcode5_ID": 11674,
        "P_Name": "全國景美站(全國)",
        "P_X": 304595.475555876,
        "P_Y": 2765469.57892851
      }
    },
    {
      "type": "Feature",
      "geometry": {
        "type": "Point",
        "coordinates": [
          121.553968,
          25.000904
        ]
      },
      "properties": {
        "P_ID": 380,
        "P_Type": "B001",
        "Pcode5_ID": 11687,
        "P_Name": "福華站(金台)",
        "P_X": 305917.68209487,
        "P_Y": 2765989.98308574
      }
    },
    {
      "type": "Feature",
      "geometry": {
        "type": "Point",
        "coordinates": [
          121.542386,
          24.989121
        ]
      },
      "properties": {
        "P_ID": 381,
        "P_Type": "B001",
        "Pcode5_ID": 11669,
        "P_Name": "世新站(世新)",
        "P_X": 304753.78963458,
        "P_Y": 2764680.11313293
      }
    },
    {
      "type": "Feature",
      "geometry": {
        "type": "Point",
        "coordinates": [
          121.50403,
          25.116723
        ]
      },
      "properties": {
        "P_ID": 382,
        "P_Type": "B001",
        "Pcode5_ID": 11262,
        "P_Name": "台亞承德站(台亞)",
        "P_X": 300829.037847772,
        "P_Y": 2778799.04771447
      }
    },
    {
      "type": "Feature",
      "geometry": {
        "type": "Point",
        "coordinates": [
          121.502164,
          25.119309
        ]
      },
      "properties": {
        "P_ID": 383,
        "P_Type": "B001",
        "Pcode5_ID": 11262,
        "P_Name": "北投站(中油)",
        "P_X": 300639.791785147,
        "P_Y": 2779084.78780451
      }
    },
    {
      "type": "Feature",
      "geometry": {
        "type": "Point",
        "coordinates": [
          121.466299,
          25.12708
        ]
      },
      "properties": {
        "P_ID": 384,
        "P_Type": "B001",
        "Pcode5_ID": 11257,
        "P_Name": "中央北路站(中油)",
        "P_X": 297020.025087149,
        "P_Y": 2779932.57366855
      }
    },
    {
      "type": "Feature",
      "geometry": {
        "type": "Point",
        "coordinates": [
          121.498883,
          25.121537
        ]
      },
      "properties": {
        "P_ID": 385,
        "P_Type": "B001",
        "Pcode5_ID": 11259,
        "P_Name": "大業站(車容坊)",
        "P_X": 300308.007814597,
        "P_Y": 2779330.34793726
      }
    },
    {
      "type": "Feature",
      "geometry": {
        "type": "Point",
        "coordinates": [
          121.498588,
          25.1247
        ]
      },
      "properties": {
        "P_ID": 386,
        "P_Type": "B001",
        "Pcode5_ID": 11268,
        "P_Name": "關渡大業站(富叡)",
        "P_X": 300276.964710693,
        "P_Y": 2779680.59170474
      }
    },
    {
      "type": "Feature",
      "geometry": {
        "type": "Point",
        "coordinates": [
          121.508653,
          25.112525
        ]
      },
      "properties": {
        "P_ID": 387,
        "P_Type": "B001",
        "Pcode5_ID": 11262,
        "P_Name": "石牌站(晶叡)",
        "P_X": 301297.005486244,
        "P_Y": 2778335.7998674
      }
    },
    {
      "type": "Feature",
      "geometry": {
        "type": "Point",
        "coordinates": [
          121.511351,
          25.108029
        ]
      },
      "properties": {
        "P_ID": 388,
        "P_Type": "B001",
        "Pcode5_ID": 11286,
        "P_Name": "百齡四路站(中油)",
        "P_X": 301570.986142586,
        "P_Y": 2777838.82285974
      }
    },
    {
      "type": "Feature",
      "geometry": {
        "type": "Point",
        "coordinates": [
          121.511155,
          25.107296
        ]
      },
      "properties": {
        "P_ID": 389,
        "P_Type": "B001",
        "Pcode5_ID": 11286,
        "P_Name": "溫馨站(鈉叡)",
        "P_X": 301551.526089986,
        "P_Y": 2777757.55640531
      }
    },
    {
      "type": "Feature",
      "geometry": {
        "type": "Point",
        "coordinates": [
          121.550678,
          25.062696
        ]
      },
      "properties": {
        "P_ID": 390,
        "P_Type": "B001",
        "Pcode5_ID": 10548,
        "P_Name": "松山機場站(台亞)",
        "P_X": 305557.746996094,
        "P_Y": 2772833.05251306
      }
    },
    {
      "type": "Feature",
      "geometry": {
        "type": "Point",
        "coordinates": [
          121.544416,
          25.049513
        ]
      },
      "properties": {
        "P_ID": 391,
        "P_Type": "B001",
        "Pcode5_ID": 10552,
        "P_Name": "復興北路站(中油)",
        "P_X": 304931.839505868,
        "P_Y": 2771370.26934671
      }
    },
    {
      "type": "Feature",
      "geometry": {
        "type": "Point",
        "coordinates": [
          121.563721,
          25.05938
        ]
      },
      "properties": {
        "P_ID": 392,
        "P_Type": "B001",
        "Pcode5_ID": 10588,
        "P_Name": "民生東路站(中油)",
        "P_X": 306875.209451577,
        "P_Y": 2772471.17339261
      }
    },
    {
      "type": "Feature",
      "geometry": {
        "type": "Point",
        "coordinates": [
          121.55831,
          25.049441
        ]
      },
      "properties": {
        "P_ID": 393,
        "P_Type": "B001",
        "Pcode5_ID": 10560,
        "P_Name": "光復北路站(中油)",
        "P_X": 306333.812083453,
        "P_Y": 2771368.00649244
      }
    },
    {
      "type": "Feature",
      "geometry": {
        "type": "Point",
        "coordinates": [
          121.553363,
          25.072607
        ]
      },
      "properties": {
        "P_ID": 394,
        "P_Type": "B001",
        "Pcode5_ID": 10594,
        "P_Name": "濱江大直橋站(中油)",
        "P_X": 305824.148974949,
        "P_Y": 2773931.96070119
      }
    },
    {
      "type": "Feature",
      "geometry": {
        "type": "Point",
        "coordinates": [
          121.570256,
          25.053832
        ]
      },
      "properties": {
        "P_ID": 395,
        "P_Type": "B001",
        "Pcode5_ID": 10585,
        "P_Name": "全國撫遠街站(全國)",
        "P_X": 307537.146217702,
        "P_Y": 2771859.40668161
      }
    },
    {
      "type": "Feature",
      "geometry": {
        "type": "Point",
        "coordinates": [
          121.577624,
          25.039669
        ]
      },
      "properties": {
        "P_ID": 396,
        "P_Type": "B001",
        "Pcode5_ID": 11076,
        "P_Name": "松山路站(中油)",
        "P_X": 308287.267692842,
        "P_Y": 2770293.78060834
      }
    },
    {
      "type": "Feature",
      "geometry": {
        "type": "Point",
        "coordinates": [
          121.566816,
          25.041308
        ]
      },
      "properties": {
        "P_ID": 397,
        "P_Type": "B001",
        "Pcode5_ID": 11071,
        "P_Name": "忠孝東路站(中油)",
        "P_X": 307195.863416282,
        "P_Y": 2770470.7154992
      }
    },
    {
      "type": "Feature",
      "geometry": {
        "type": "Point",
        "coordinates": [
          121.604513,
          25.054171
        ]
      },
      "properties": {
        "P_ID": 398,
        "P_Type": "B001",
        "Pcode5_ID": 11553,
        "P_Name": "南港站(中油)",
        "P_X": 310993.489056398,
        "P_Y": 2771911.96289287
      }
    },
    {
      "type": "Feature",
      "geometry": {
        "type": "Point",
        "coordinates": [
          121.589946,
          25.053268
        ]
      },
      "properties": {
        "P_ID": 399,
        "P_Type": "B001",
        "Pcode5_ID": 11563,
        "P_Name": "全國南港站(全國)",
        "P_X": 309524.126056171,
        "P_Y": 2771805.45276199
      }
    },
    {
      "type": "Feature",
      "geometry": {
        "type": "Point",
        "coordinates": [
          121.587491,
          25.048655
        ]
      },
      "properties": {
        "P_ID": 400,
        "P_Type": "B001",
        "Pcode5_ID": 11576,
        "P_Name": "聯成站(聯成)",
        "P_X": 309278.635376455,
        "P_Y": 2771293.41020253
      }
    },
    {
      "type": "Feature",
      "geometry": {
        "type": "Point",
        "coordinates": [
          121.491767,
          25.032813
        ]
      },
      "properties": {
        "P_ID": 401,
        "P_Type": "B001",
        "Pcode5_ID": 10858,
        "P_Name": "環河南路站274之2號(中油)",
        "P_X": 299626.161209637,
        "P_Y": 2769500.15475086
      }
    },
    {
      "type": "Feature",
      "geometry": {
        "type": "Point",
        "coordinates": [
          121.492166,
          25.032771
        ]
      },
      "properties": {
        "P_ID": 402,
        "P_Type": "B001",
        "Pcode5_ID": 10883,
        "P_Name": "環河南路站177之1號(中油)",
        "P_X": 299666.443433915,
        "P_Y": 2769495.64892393
      }
    },
    {
      "type": "Feature",
      "geometry": {
        "type": "Point",
        "coordinates": [
          121.50327,
          25.03827
        ]
      },
      "properties": {
        "P_ID": 403,
        "P_Type": "B001",
        "Pcode5_ID": 10849,
        "P_Name": "桂林路站(中油)",
        "P_X": 300784.746866421,
        "P_Y": 2770108.86476377
      }
    },
    {
      "type": "Feature",
      "geometry": {
        "type": "Point",
        "coordinates": [
          121.498622,
          25.021939
        ]
      },
      "properties": {
        "P_ID": 404,
        "P_Type": "B001",
        "Pcode5_ID": 10869,
        "P_Name": "華中站(山隆)",
        "P_X": 300322.372196955,
        "P_Y": 2768298.22771488
      }
    },
    {
      "type": "Feature",
      "geometry": {
        "type": "Point",
        "coordinates": [
          121.500736,
          25.02714
        ]
      },
      "properties": {
        "P_ID": 405,
        "P_Type": "B001",
        "Pcode5_ID": 10879,
        "P_Name": "萬大站(山隆)",
        "P_X": 300533.596914214,
        "P_Y": 2768875.10262334
      }
    }
  ]
}