{
  "type": "FeatureCollection",
  "features": [
    {
      "type": "Feature",
      "geometry": {
        "type": "Point",
        "coordinates": [
          121.607093,
          25.064124
        ]
      },
      "properties": {
        "P_ID": 406,
        "P_Type": "B002",
        "Pcode5_ID": 11484,
        "P_Name": "臺北市政府環境保護局內湖垃圾焚化廠",
        "P_X": 311248.86144493,
        "P_Y": 2773015.58876091
      }
    },
    {
      "type": "Feature",
      "geometry": {
        "type": "Point",
        "coordinates": [
          121.499205,
          25.107589
        ]
      },
      "properties": {
        "P_ID": 407,
        "P_Type": "B002",
        "Pcode5_ID": 11656,
        "P_Name": "臺北市政府環境保護局木柵垃圾焚化廠",
        "P_X": 300346.192610921,
        "P_Y": 2777785.50178513
      }
    },
    {
      "type": "Feature",
      "geometry": {
        "type": "Point",
        "coordinates": [
          121.587658,
          25.005521
        ]
      },
      "properties": {
        "P_ID": 408,
        "P_Type": "B002",
        "Pcode5_ID": 11277,
        "P_Name": "臺北市政府環境保護局北投垃圾焚化廠",
        "P_X": 309316.217838667,
        "P_Y": 2766515.70699344
      }
    }
  ]
}