{
  "type": "FeatureCollection",
  "features": [
    {
      "type": "Feature",
      "geometry": {
        "type": "Point",
        "coordinates": [
          121.536114,
          25.063205
        ]
      },
      "properties": {
        "P_ID": 409,
        "P_Type": "B003",
        "Pcode5_ID": 10482,
        "P_Name": "第一殯儀館",
        "P_X": 304088.137629337,
        "P_Y": 2772883.52881518
      }
    },
    {
      "type": "Feature",
      "geometry": {
        "type": "Point",
        "coordinates": [
          121.552999,
          25.01396
        ]
      },
      "properties": {
        "P_ID": 410,
        "P_Type": "B003",
        "Pcode5_ID": 10668,
        "P_Name": "第二殯儀館",
        "P_X": 305813.968374372,
        "P_Y": 2767435.73392011
      }
    },
    {
      "type": "Feature",
      "geometry": {
        "type": "Point",
        "coordinates": [
          121.591525,
          25.011903
        ]
      },
      "properties": {
        "P_ID": 411,
        "P_Type": "B003",
        "Pcode5_ID": 11656,
        "P_Name": "富德靈骨樓",
        "P_X": 309703.463282224,
        "P_Y": 2767224.31147433
      }
    },
    {
      "type": "Feature",
      "geometry": {
        "type": "Point",
        "coordinates": [
          121.527484,
          25.142263
        ]
      },
      "properties": {
        "P_ID": 412,
        "P_Type": "B003",
        "Pcode5_ID": 11247,
        "P_Name": "陽明山納骨塔",
        "P_X": 303183.244189871,
        "P_Y": 2781637.06647281
      }
    }
  ]
}